{
    "sourceFile": "screens/stepRegistration/index.tsx",
    "activeCommit": 0,
    "commits": [
        {
            "activePatchIndex": 2,
            "patches": [
                {
                    "date": 1649701853436,
                    "content": "Index: \n===================================================================\n--- \n+++ \n"
                },
                {
                    "date": 1649701867089,
                    "content": "Index: \n===================================================================\n--- \n+++ \n@@ -2041,9 +2041,9 @@\n             value={date}\n             mode={\"date\"}\n             is24Hour={true}\n             style={{\n-              backgroundColor: 'blavk'\n+              backgroundColor: 'black'\n             }}\n             // display=\"default\"\n             display={Platform.OS == \"ios\" ? \"spinner\" : \"default\"}\n             onChange={(event, selectedDate) => processDate(event, selectedDate)}\n"
                },
                {
                    "date": 1649701986368,
                    "content": "Index: \n===================================================================\n--- \n+++ \n@@ -2041,9 +2041,9 @@\n             value={date}\n             mode={\"date\"}\n             is24Hour={true}\n             style={{\n-              backgroundColor: 'black'\n+              backgroundColor: 'grey'\n             }}\n             // display=\"default\"\n             display={Platform.OS == \"ios\" ? \"spinner\" : \"default\"}\n             onChange={(event, selectedDate) => processDate(event, selectedDate)}\n"
                }
            ],
            "date": 1649701853435,
            "name": "Commit-0",
            "content": "// react\nimport * as React from \"react\";\nimport { useEffect, useRef, useState } from \"react\";\n\n// react-native\nimport {\n  ImageStyle,\n  StatusBar,\n  View,\n  ViewStyle,\n  Text,\n  TextStyle,\n  Image,\n  Platform,\n  Appearance,\n  FlatList,\n  Animated,\n  AppState,\n  ScrollView,\n  ImageBackground,\n  TouchableOpacity,\n  ActivityIndicator,\n  KeyboardAvoidingView,\n  TouchableWithoutFeedback,\n  Keyboard\n} from \"react-native\";\nimport { GooglePlacesAutocomplete } from \"react-native-google-places-autocomplete\";\nimport RadioGroup from \"react-native-radio-buttons-group\";\nimport DateTimePicker from \"@react-native-community/datetimepicker\";\nimport DatePicker from \"react-native-date-picker\";\n\n// third-party\nimport * as Animatable from \"react-native-animatable\";\nimport { translate } from \"../../i18n\";\nimport GestureRecognizer, {\n  swipeDirections,\n} from \"react-native-swipe-gestures\";\nimport useReduxStore from \"../../utils/hooks/useRedux\";\nimport MapView from \"react-native-maps\";\nimport {\n  PersistLoginRecord,\n  GetCompanyFullDetails,\n  ShowNotification,\n  GetCompanyKey,\n  GetPersistData,\n  PersistData,\n  cloudinaryUpload,\n} from \"../../utils/UtilityFunctions\";\n// redux\nimport { ApplicationState } from \"../../redux\";\n\n// components\nimport {\n  YOUR_CLOUDINARY_PRESET,\n  YOUR_CLOUDINARY_NAME,\n  requestCameraPermission,\n  YOUR_CLOUDINARY_PRESET_JobBanner,\n} from \"../../utils/UtilityFunctions\";\n\nimport NeomorphButton from \"../../components/neomorph-btns/neomorph-btn\";\n\nimport { launchCamera, launchImageLibrary } from \"react-native-image-picker\";\nimport DocumentPicker from \"react-native-document-picker\";\nimport { KeyboardAvoidContainer } from \"../../components/keybord/keybord-avoid-container\";\n\n// styles\nimport { Layout } from \"../../constants\";\nimport { colors, fonts, images } from \"../../theme\";\nimport { Button } from \"../../components/button\";\nimport { Header } from \"../../components/header\";\nimport CustomText from \"../../components/customText/CustomText\";\nimport CustomMap from \"../../components/map/GooglePlacesInput\";\nimport CustomInput from \"../../components/customInput/CustomInput\";\nimport CustomDate from \"../../components/date/CustomDate\";\nimport CustomTooltip from \"../../components/tooltip/tooltip\";\nimport NumberCarousel from \"../../components/carousel/carousel\";\nimport Naira from \"../../components/Naira/Naira\";\nimport { useFocusEffect } from \"@react-navigation/native\";\nimport { useNavigation } from \"@react-navigation/native\";\nimport {\n  getPropertyType,\n  getBuildingAmenities,\n  getAppliancesAndFinishings,\n  addProperty,\n} from \"../../services/api\";\n\n// util\n\ninterface StepRegistrationScreenProps {}\nconst actionSheeYearBuilttRef = React.createRef();\nconst actionSheetUnitRef = React.createRef();\n\nconst ROOT: ViewStyle = {\n  //   height: \"100%\",\n  flex: 1,\n  width: Layout.window.width,\n  // backgroundColor: colors.white,\n};\n\nconst APP_LOGO: ImageStyle = {\n  alignSelf: \"center\",\n  marginTop: Layout.window.height / 10,\n};\n\nconst BODY: ViewStyle = {\n  marginTop: 20,\n};\n\nconst FLEXROW: TextStyle = {\n  flexDirection: \"row\",\n  justifyContent: \"space-between\",\n  alignItems: \"center\",\n  flexWrap: \"wrap\",\n};\nconst FLEXROW2: TextStyle = {\n  width: \"100%\",\n  justifyContent: \"center\",\n  alignItems: \"center\",\n};\nconst FLEXROWVERIFY: TextStyle = {\n  width: \"100%\",\n  alignItems: \"flex-start\",\n  justifyContent: \"flex-start\",\n  flexDirection: \"row\",\n  // flex: 1,\n  marginBottom: 23,\n  minHeight: 24,\n};\nconst SETMARGIN: TextStyle = {\n  marginRight: 10,\n};\nconst CARDCONTAINER: TextStyle = {\n  //   justifyContent: \"flex-end\",\n  height: \"100%\",\n  width: \"100%\",\n  padding: 10,\n  //   backgroundColor: \"red\",\n\n  marginTop: 15,\n};\nconst CARDIMAGE: TextStyle = {\n  height: 179,\n  width: 240,\n  marginRight: 10,\n};\nconst FULLWIDTH: TextStyle = {\n  width: \"100%\",\n};\nconst MOREBTN: TextStyle = {\n  position: \"absolute\",\n  right: 20,\n  bottom: 20,\n};\nconst GETSTARTED: TextStyle = {\n  borderRadius: 24,\n  borderColor: colors.dark2,\n  borderWidth: 1,\n  justifyContent: \"center\",\n  alignItems: \"center\",\n  padding: 10,\n  width: 90,\n};\nconst BTNSTYLE: TextStyle = {\n  borderRadius: 5,\n  backgroundColor: colors.dark2,\n  justifyContent: \"center\",\n  alignItems: \"center\",\n  padding: 15,\n  width: \"100%\",\n  marginTop: 40,\n};\nconst CHECKWRAP: TextStyle = {\n  flex: 1,\n  //  padding: 5,\n  justifyContent: \"center\",\n  alignItems: \"center\",\n  // maxWidth: \"42%\",\n  width: \"100%\",\n  height: 70,\n  // minWidth: \"48%\",\n};\n\nconst CHECKWRAPIMAGE: TextStyle = {\n  width: \"100%\",\n  height: 70,\n};\n\nconst CHECKWRAP3: TextStyle = {\n  flex: 1,\n  padding: 10,\n  paddingHorizontal: 20,\n  justifyContent: \"center\",\n  alignItems: \"center\",\n  // maxWidth: \"48%\",\n  width: \"45%\",\n  height: 70,\n  minWidth: \"40%\",\n};\nconst CHECKWRAP5: TextStyle = {\n  padding: 10,\n  paddingHorizontal: 20,\n  justifyContent: \"center\",\n  alignItems: \"center\",\n  width: \"43%\",\n  height: 120,\n  minWidth: \"40%\",\n  marginVertical: 10,\n};\nconst CHECKWRAP2: TextStyle = {\n  flex: 1,\n  padding: 10,\n  paddingHorizontal: 15,\n  flexDirection: \"row\",\n  justifyContent: \"center\",\n  alignItems: \"center\",\n  maxWidth: \"100%\",\n  minWidth: \"100%\",\n  height: 75,\n  marginBottom: 10,\n};\nconst LIKECHECKBOX: TextStyle = {\n  flex: 1,\n  borderWidth: 1,\n  width: \"100%\",\n  justifyContent: \"center\",\n  alignItems: \"center\",\n  borderRadius: 3,\n};\nconst INTERIOCHECKER: TextStyle = {\n  flex: 1,\n  borderWidth: 0,\n  width: \"20%\",\n  maxWidth: \"20%\",\n  justifyContent: \"center\",\n  alignItems: \"center\",\n  maxHeight: \"91%\",\n  minHeight: \"91%\",\n};\nconst INPUTWRAP2: ViewStyle = {\n  width: \"100%\",\n  paddingHorizontal: 15,\n  marginBottom: 20,\n};\nconst RNCHECKBOXSTYLE: ViewStyle = {\n  height: 10,\n  width: 10,\n  borderRadius: 10 / 2,\n};\nconst SETINPUTSTYLE: TextStyle = {\n  marginBottom: 10,\n};\n\nconst StepRegistration = ({ navigation, route }) => {\n  const navigations = useNavigation();\n  const [stepValue, setStepValue] = useState(\"Step 1\");\n  const [enteredlocation, setEnteredlocation] = useState(\"\");\n  const [listingTitle, setListingTitle] = useState(\"\");\n  const [priceTitle, setPriceTitle] = useState(\"\");\n  const [describedProperty, setDescribedProperty] = useState(\"\");\n  const [SquareMeter, setSquareMeter] = useState(\"\");\n  const [listingprice, setListingprice] = useState(0);\n  const [serviceCharge, setServiceCharge] = useState(0);\n  const [addressValue, setAddressValue] = useState(\"\");\n  const [interiorBedroomSelect, setInteriorBedroomSelect] = useState(0);\n  const [interiorBathroomSelect, setInteriorBathroomSelect] = useState(0);\n  const [interiorKitchenSelect, setInteriorKitchenSelect] = useState(0);\n  const [yearSelect, setYearSelect] = useState(\"\");\n  const [unitSelect, setUnitSelect] = useState(0);\n  const [selectPropertyType, setSelectPropertyType] = useState(\"\");\n  const [fetchPropType, setFetchPropType] = useState(null);\n  const [buildingAmenities, setBuildingAmenities] = useState(null);\n  const [appliancesAndFinishings, setAppliancesAndFinishings] = useState(null);\n  const [propTypeSelected, setPropTypeSelected] = useState(null);\n  const [buildingAmenitiesSelected, setBuildingAmenitiesSelected] = useState(\n    []\n  );\n  const [appliancesAndFinishingsSelected, setAppliancesAndFinishingsSelected] =\n    useState([]);\n  const [loadingState, setLoadingState] = useState(false);\n  const [loading2State, setLoading2State] = useState(false);\n  const [imageArray, setImageArray] = useState([]);\n  const [loopedImageArray, setLoopedImageArray] = useState(null);\n  const [fileArray, setFileArray] = useState([]);\n  const [uploaderFileName, setFileName] = useState(\"\");\n  const [userSelectedDate, setUserSelectedDate] = useState(\"DD/MM/YY\");\n  const [userSelectedTime, setUserSelectedTime] = useState(\"00:00\");\n  const [processing, setprocessing] = useState(false);\n  const [showDate, setShowDate] = useState(false);\n  const [showTime, setShowTime] = useState(false);\n  const [date, setDate] = useState(new Date(1598051730000));\n  const [nonsenseprop, setnonsenseprop] = useState(\"\");\n  // const [loopedFIleArray, setLoopedFIleArray] = useState(null);\n\n  const [show, setShow] = useState(false);\n  // const [stepSecondPropertyIndex, setStepSecondPropertyIndex] = useState(0);\n\n  const mode = \"dark\";\n\n  useEffect(() => {\n    async function fetAllProperType() {\n      // <Myspiner state={true} />;\n      try {\n        const result = await getPropertyType();\n        const { kind, data } = result;\n\n        if (kind === \"ok\") {\n          setFetchPropType(data.data);\n        }\n      } catch ({ message }) {\n        ShowNotification(message);\n      }\n    }\n    fetAllProperType();\n  }, []);\n\n  useEffect(() => {\n    async function fetBuildingAmenities() {\n      // <Myspiner state={true} />;\n      try {\n        const result = await getBuildingAmenities();\n        const { kind, data } = result;\n\n        console.warn(data.data, \"Building Amenities\");\n\n        if (kind === \"ok\") {\n          setBuildingAmenities(data.data);\n        }\n      } catch ({ message }) {\n        ShowNotification(message);\n      }\n    }\n    fetBuildingAmenities();\n  }, []);\n  useEffect(() => {\n    async function fetchAppliancesAndFinishings() {\n      // <Myspiner state={true} />;\n      try {\n        const result = await getAppliancesAndFinishings();\n        const { kind, data } = result;\n\n        console.warn(data.data, \"Appliances And Finishings\");\n\n        if (kind === \"ok\") {\n          // console.warn(data.data, \"anybody\");\n\n          setAppliancesAndFinishings(data.data);\n        }\n      } catch ({ message }) {\n        ShowNotification(message);\n      }\n    }\n    fetchAppliancesAndFinishings();\n  }, []);\n  useEffect(() => {\n    // const my = imageArray;\n    // const my = (imageArray || []).map((item, index) => {});\n    let LoopedattashedImage = (imageArray || []).map((item, index) => {\n      return (\n        <ImageBackground\n          key={index}\n          resizeMode=\"stretch\"\n          source={{ uri: item }}\n          style={[CHECKWRAP5]}\n        >\n          <TouchableOpacity\n            onPress={(e) => removeImage(item)}\n            // style={{ position: \"absolut\", to: 20, right: 70 }}\n          >\n            <Image source={images.close} style={{ width: 40, height: 40 }} />\n          </TouchableOpacity>\n        </ImageBackground>\n      );\n    });\n    setLoopedImageArray(LoopedattashedImage);\n  }, [imageArray]);\n  const ref = useRef();\n\n  const removeImage = (e) => {\n    // console.warn(e);\n\n    let array = imageArray; // make a separate copy of the array\n    let index = array.indexOf(e);\n    console.warn(e, array, index);\n    if (index !== -1) {\n      array.splice(index, 1);\n      setImageArray(array);\n    }\n  };\n\n  const handleYearBuilt = () => {\n    actionSheeYearBuilttRef?.current?.show();\n  };\n  // console.warn(yearSelect, \"ddd\");\n\n  const handleYearSelect = (params) => {\n    setYearSelect(params.toString());\n    actionSheeYearBuilttRef?.current?.hide();\n  };\n  const handleUnitSelect = (params) => {\n    setUnitSelect(params);\n    actionSheetUnitRef?.current?.hide();\n  };\n  const handleInteriorBedRoom = (params) => {\n    setInteriorBedroomSelect(params);\n  };\n  const handleUnit = () => {\n    actionSheetUnitRef?.current?.show();\n  };\n  const handleStepValue = (params) => {\n    // if (params === \"Step 2\") {\n    //   setListingprice(788);\n    //   console.log(\"heree\");\n    // }\n    setStepValue(params);\n  };\n  const handlePropertyType = (params) => {\n    setSelectPropertyType(params);\n  };\n  const handleAddresstype = (params) => {\n    // console.warn(params.description, \"tomzy adex yung \");\n    setAddressValue(params.description);\n  };\n  const handlegeneralAction = (params, params2) => {\n    params(params2);\n  };\n  const handlleArrayFillold = (params) => {\n    setBuildingAmenitiesSelected([...buildingAmenitiesSelected, params]);\n  };\n  const handlleArrayFill = (params) => {\n    if (buildingAmenitiesSelected.includes(params) === false) {\n      setBuildingAmenitiesSelected([...buildingAmenitiesSelected, params]);\n    } else {\n      for (var i = 0; i < buildingAmenitiesSelected.length; i++) {\n        if (buildingAmenitiesSelected[i] === params) {\n          buildingAmenitiesSelected.splice(i, 1);\n          setBuildingAmenitiesSelected([...buildingAmenitiesSelected]);\n        }\n      }\n    }\n  };\n  const handlleArrayFill2 = (params) => {\n    if (appliancesAndFinishingsSelected.includes(params) === false) {\n      setAppliancesAndFinishingsSelected([\n        ...appliancesAndFinishingsSelected,\n        params,\n      ]);\n    } else {\n      for (var i = 0; i < appliancesAndFinishingsSelected.length; i++) {\n        if (appliancesAndFinishingsSelected[i] === params) {\n          appliancesAndFinishingsSelected.splice(i, 1);\n          setAppliancesAndFinishingsSelected([\n            ...appliancesAndFinishingsSelected,\n          ]);\n        }\n      }\n    }\n  };\n\n  const processAddProperty2 = async () => {\n    console.warn(\"sss\");\n  };\n  const processDatePicker = async () => {\n    setShowTime(false);\n    setShowDate(true);\n  };\n  const processTimePicker = async () => {\n    setShowDate(false);\n    setShowTime(true);\n  };\n  const processAddProperty = async () => {\n    console.warn(\"here ssnow\");\n\n    // if (emailOrUsername === \"\") {\n    //   ShowNotification(\"Email is  required\");\n    //   return;\n    // }\n    // if (password === \"\") {\n    //   ShowNotification(\"Pls enter your password\");\n    //   return;\n    // }\n    const buildingAmenitiesSelected1 = buildingAmenitiesSelected.toString();\n    const appliancesAndFinishingsSelected1 =\n      appliancesAndFinishingsSelected.toString();\n\n    let payload = {\n      propertyImages: imageArray,\n      propertyDocuments: fileArray,\n      BedroomCount: interiorBedroomSelect,\n      BathroomCount: interiorBathroomSelect,\n      KitchenCount: interiorKitchenSelect,\n      slesTypes: selectPropertyType,\n      address: addressValue,\n      price: listingprice,\n      description: describedProperty,\n      PropertyType: propTypeSelected,\n      YearBuilt: yearSelect,\n      // YearBuilt: yearSelect,\n      AvailableUnits: unitSelect,\n      ServiceCharge: 222,\n      BuildingAmenities: buildingAmenitiesSelected1,\n      AppliancesNFinishings: appliancesAndFinishingsSelected1,\n      scheduleDate: userSelectedDate,\n      scheduleTime: userSelectedTime,\n      listingTitle: listingTitle,\n    };\n    // let payload = {\n    //   emailAddress: \"jinaddavid+00@gmail.com\",\n    //   password: \"hash\",\n    // };\n    // console.warn(appliancesAndFinishingsSelected, \"here now\");\n    console.warn(payload, \"here now2\");\n    setprocessing(true);\n\n    try {\n      const result = await addProperty(payload);\n      const { kind, data } = result;\n      const loginData = data?.data;\n      console.warn(result);\n      setprocessing(false);\n\n      if (kind === \"ok\") {\n        ShowNotification(\n          \"Your property has been received. We will contact you shortly.\",\n          \"success\"\n        );\n        // navigation.navigate(\"TabHome\");\n        let nextdata = {\n          address: addressValue,\n          scheduleDate: userSelectedDate,\n          scheduleTime: userSelectedTime,\n        };\n        navigation.navigate(\"Main\", {\n          screen: \"AddPropertyResponse\",\n          params: { propertyScheduleData: nextdata },\n        });\n        // navigation.navigate(\"Main\", {\n        //   screen: \"TabHome\",\n        //   params: {\n        //     screen: \"Home\",\n        //     params: {\n        //       screen: \"Profile\",\n        //     },\n        //   },\n        // });\n      } else {\n        const newMsg = data.message;\n        const reason = data.reason;\n        let ErrorMesssage = `${newMsg} \\n ${reason}`;\n        ShowNotification(ErrorMesssage, \"warning\");\n      }\n    } catch ({ message }) {\n      ShowNotification(message, \"error\");\n    }\n  };\n\n  const currentYear = new Date().getFullYear();\n\n  let numberCount = [];\n  for (let i = 1; i <= 10; i++) {\n    numberCount.push(\n      <TouchableOpacity\n        onPress={() => {\n          handleUnitSelect(i);\n        }}\n        style={{\n          borderBottomWidth: 1,\n          borderBottomColor: \"#ccc\",\n          paddingVertical: 10,\n          flexDirection: \"row\",\n          alignItems: \"center\",\n        }}\n      >\n        {unitSelect === i ? (\n          <Image source={images.checktrue} />\n        ) : (\n          <Image source={images.checkfalse} />\n        )}\n        {/* <CheckBox\n          style={RNCHECKBOXSTYLE}\n          value={unitSelect === i ? true : false}\n          checkedIcon=\"dot-circle-o\"\n          uncheckedIcon=\"circle-o\"\n        /> */}\n        <CustomText\n          textSize={14}\n          textWeight={\"normal\"}\n          textcolor={colors.black}\n          displayText={`${i} Unit`}\n          textStyle={{\n            marginLeft: 25,\n          }}\n        />\n      </TouchableOpacity>\n    );\n  }\n\n  let interiorBedroom = [];\n  for (let i = 1; i <= 5; i++) {\n    interiorBedroom.push(\n      <TouchableOpacity\n        onPress={() => {\n          handleInteriorBedRoom(i);\n        }}\n        style={[\n          INTERIOCHECKER,\n          {\n            backgroundColor:\n              interiorBedroomSelect === i ? colors.black : colors.transparent,\n          },\n        ]}\n      >\n        <CustomText\n          textSize={16}\n          textWeight={\"normal\"}\n          textcolor={interiorBedroomSelect === i ? colors.white : colors.black}\n          displayText={`${i == 5 ? \"5+\" : i}`}\n          textStyle={{\n            lineHeight: 24,\n          }}\n        />\n      </TouchableOpacity>\n    );\n  }\n\n  let interiorBathroom = [];\n  for (let i = 1; i <= 5; i++) {\n    interiorBathroom.push(\n      <TouchableOpacity\n        onPress={() => {\n          handlegeneralAction(setInteriorBathroomSelect, i);\n        }}\n        style={[\n          INTERIOCHECKER,\n          {\n            backgroundColor:\n              interiorBathroomSelect === i ? colors.black : colors.transparent,\n          },\n        ]}\n      >\n        <CustomText\n          textSize={16}\n          textWeight={\"normal\"}\n          textcolor={interiorBathroomSelect === i ? colors.white : colors.black}\n          displayText={`${i == 5 ? \"5+\" : i}`}\n          textStyle={{\n            lineHeight: 24,\n          }}\n        />\n      </TouchableOpacity>\n    );\n  }\n\n  let interiorKitChen = [];\n  for (let i = 1; i <= 5; i++) {\n    interiorKitChen.push(\n      <TouchableOpacity\n        onPress={() => {\n          handlegeneralAction(setInteriorKitchenSelect, i);\n        }}\n        style={[\n          INTERIOCHECKER,\n          {\n            backgroundColor:\n              interiorKitchenSelect === i ? colors.black : colors.transparent,\n          },\n        ]}\n      >\n        <CustomText\n          textSize={16}\n          textWeight={\"normal\"}\n          textcolor={interiorKitchenSelect === i ? colors.white : colors.black}\n          displayText={`${i == 5 ? \"5+\" : i}`}\n          textStyle={{\n            lineHeight: 24,\n          }}\n        />\n      </TouchableOpacity>\n    );\n  }\n\n  const range = (start, stop, step) =>\n    Array.from(\n      { length: (stop - start) / step + 1 },\n      (_, i) => start + i * step\n    );\n  const converYearValue = range(currentYear, currentYear - 50, -1);\n\n  let perparedYearValue = (converYearValue || []).map(\n    (converYearValueItems) => {\n      return (\n        <TouchableOpacity\n          onPress={() => {\n            handleYearSelect(converYearValueItems);\n          }}\n          style={{\n            borderBottomWidth: 1,\n            borderBottomColor: \"#ccc\",\n            paddingVertical: 10,\n            flexDirection: \"row\",\n            alignItems: \"center\",\n          }}\n        >\n          {yearSelect === converYearValueItems.toString() ? (\n            <Image source={images.checktrue} />\n          ) : (\n            <Image source={images.checkfalse} />\n          )}\n\n          {/* <CheckBox\n            style={RNCHECKBOXSTYLE}\n            value={yearSelect === converYearValueItems ? true : false}\n            checkedIcon=\"dot-circle-o\"\n            uncheckedIcon=\"circle-o\"\n          /> */}\n          <CustomText\n            textSize={14}\n            textWeight={\"normal\"}\n            textcolor={colors.black}\n            displayText={`Year ${converYearValueItems}`}\n            textStyle={{\n              marginLeft: 25,\n            }}\n          />\n        </TouchableOpacity>\n      );\n    }\n  );\n  /* \n    \n        \n           \n  */\n\n  let perparedPropType = (fetchPropType || []).map((propTypeItems, index) => {\n    return (\n      <View\n        style={{\n          width: (index + 1) % 3 === 0 ? \"100%\" : \"50%\",\n          justifyContent: \"center\",\n          alignItems: \"center\",\n          marginBottom: 24,\n        }}\n      >\n        <NeomorphButton\n          title={propTypeItems?.name}\n          onPressHandler={() =>\n            handlegeneralAction(setPropTypeSelected, propTypeItems?.name)\n          }\n          containerStyles={{\n            borderColor:\n              propTypeSelected === propTypeItems?.name\n                ? colors.black\n                : colors.transparent,\n          }}\n        />\n      </View>\n    );\n  });\n\n  /*  <ImageBackground\n          resizeMode=\"stretch\"\n          source={images.card5}\n          style={[CHECKWRAP3]}\n        >\n          <TouchableOpacity\n            onPress={() => handlleArrayFill(buildingtestElement?.name)}\n            style={[\n              LIKECHECKBOX,\n              {\n                borderColor:\n                  buildingAmenitiesSelected.includes(\n                    buildingtestElement?.name\n                  ) === true\n                    ? colors.black\n                    : colors.transparent,\n              },\n            ]}\n          >\n            <CustomText\n              textSize={16}\n              textWeight={\"normal\"}\n              textcolor={colors.black}\n              displayText={buildingtestElement?.name}\n              textStyle={{\n                lineHeight: 24,\n                textAlign: \"center\",\n              }}\n              numberOfLines={2}\n            />\n          </TouchableOpacity>\n        </ImageBackground>\n        */\n\n  let perparedBuildingAmenities = (buildingAmenities || []).map(\n    (buildingtestElement) => {\n      return (\n        <NeomorphButton\n          title={buildingtestElement?.name}\n          onPressHandler={() => handlleArrayFill(buildingtestElement?.name)}\n          containerStyles={{\n            borderColor:\n              buildingAmenitiesSelected.includes(buildingtestElement?.name) ===\n              true\n                ? colors.black\n                : colors.transparent,\n            marginBottom: 20,\n          }}\n        />\n      );\n    }\n  );\n  /*    <ImageBackground\n          resizeMode=\"stretch\"\n          source={images.card5}\n          style={[CHECKWRAP3]}\n        >\n          <TouchableOpacity\n            onPress={() =>\n              handlleArrayFill2(appliancesAndFinishingsElement?.name)\n            }\n            style={[\n              LIKECHECKBOX,\n              {\n                borderColor:\n                  appliancesAndFinishingsSelected.includes(\n                    appliancesAndFinishingsElement?.name\n                  ) === true\n                    ? colors.black\n                    : colors.transparent,\n              },\n            ]}\n          >\n            <CustomText\n              textSize={16}\n              textWeight={\"normal\"}\n              textcolor={colors.black}\n              displayText={appliancesAndFinishingsElement?.name}\n              textStyle={{\n                lineHeight: 24,\n                textAlign: \"center\",\n              }}\n              numberOfLines={2}\n            />\n          </TouchableOpacity>\n        </ImageBackground>\n        */\n  let perparedAppliancesAndFinishings = (appliancesAndFinishings || []).map(\n    (appliancesAndFinishingsElement) => {\n      return (\n        <NeomorphButton\n          title={appliancesAndFinishingsElement?.name}\n          onPressHandler={() =>\n            handlleArrayFill2(appliancesAndFinishingsElement?.name)\n          }\n          containerStyles={{\n            borderColor:\n              appliancesAndFinishingsSelected.includes(\n                appliancesAndFinishingsElement?.name\n              ) === true\n                ? colors.black\n                : colors.transparent,\n            marginBottom: 20,\n          }}\n        />\n      );\n    }\n  );\n\n  // props\n\n  const actionSheetYearBuiltBoddy = (\n    <View style={{ maxHeight: Layout.window.height - 100, paddingTop: 15 }}>\n      <ScrollView>\n        <View style={{ padding: 20 }}>{perparedYearValue}</View>\n      </ScrollView>\n    </View>\n  );\n  const actionSheetUnitBody = (\n    <View style={{ padding: 20 }}>{numberCount}</View>\n  );\n  const AppliancesandFinishings = [\n    {\n      label: \"Air conditioning\",\n      value: \"Air conditioning\",\n    },\n    {\n      label: \"Tiled flooring\",\n      value: \"Tiled flooring\",\n    },\n    {\n      label: \"Hardwood flooring\",\n      value: \"Hardwood flooring\",\n    },\n    {\n      label: \"POP ceiling\",\n      value: \"POP ceiling\",\n    },\n    {\n      label: \"PVC ceiling\",\n      value: \"PVC ceiling\",\n    },\n    {\n      label: \"Oven\",\n      value: \"Oven\",\n    },\n    {\n      label: \"Bath tubs\",\n      value: \"Bath tubs\",\n    },\n    {\n      label: \"Cabinet & drawers\",\n      value: \"Cabinet & drawers\",\n    },\n    {\n      label: \"Cooking stove & gas\",\n      value: \" Cooking stove & gas\",\n    },\n    {\n      label: \"Heat extractor\",\n      value: \"Heat extractor\",\n    },\n    {\n      label: \"Fire alarm\",\n      value: \"Fire alarm\",\n    },\n    {\n      label: \"Wifi\",\n      value: \"Wifi\",\n    },\n    {\n      label: \"Granite tops\",\n      value: \"Granite tops\",\n    },\n    {\n      label: \"Glass showers\",\n      value: \"Glass showers\",\n    },\n    {\n      label: \"Washer/dryer\",\n      value: \"Washer/dryer\",\n    },\n  ];\n  const BuildingAmenities = [\n    {\n      label: \"Swimming pool\",\n      value: \"Swimming pool\",\n    },\n    {\n      label: \"Gym/fitness center\",\n      value: \"Gym/fitness center\",\n    },\n    {\n      label: \"Children playground\",\n      value: \"Children playground\",\n    },\n    {\n      label: \"Parking lot\",\n      value: \"Parking lot\",\n    },\n    {\n      label: \"Mall\",\n      value: \"Mall\",\n    },\n    {\n      label: \"Hospital\",\n      value: \"Hospital\",\n    },\n    {\n      label: \"School\",\n      value: \"School\",\n    },\n    {\n      label: \"Business Center\",\n      value: \"Business Center\",\n    },\n    {\n      label: \"Electricity\",\n      value: \"Electricity\",\n    },\n    {\n      label: \" Good & accessable roads\",\n      value: \" Good & accessable roads\",\n    },\n    {\n      label: \"Security\",\n      value: \"Security\",\n    },\n    {\n      label: \"Street lighting\",\n      value: \"Street lighting\",\n    },\n    {\n      label: \"Cleaning\",\n      value: \"Cleaning\",\n    },\n    {\n      label: \"Palto/balcony\",\n      value: \"Palto/balcony\",\n    },\n    {\n      label: \"Allowance of pets\",\n      value: \"Allowance of pets\",\n    },\n    {\n      label: \"CCTV Camera\",\n      value: \"CCTV Camera\",\n    },\n  ];\n  const attashedImage = [\n    {\n      imageUrl:\n        \"https://res.cloudinary.com/vaccinenudge/image/upload/v1638726675/samples/Rectangle_uzu3mk.png\",\n    },\n    {\n      imageUrl:\n        \"https://res.cloudinary.com/vaccinenudge/image/upload/v1638726676/samples/Rectangle-1_ivkege.png\",\n    },\n    {\n      imageUrl:\n        \"https://res.cloudinary.com/vaccinenudge/image/upload/v1638726676/samples/Rectangle-2_glpu9u.png\",\n    },\n    {\n      imageUrl:\n        \"https://res.cloudinary.com/vaccinenudge/image/upload/v1638726676/samples/Rectangle-3_lwa9z5.png\",\n    },\n  ];\n\n  let LoopedBuildingAmenities = BuildingAmenities.map((item, index) => {\n    return (\n      <ImageBackground\n        key={index}\n        resizeMode=\"stretch\"\n        source={images.card5}\n        style={[CHECKWRAP3]}\n      >\n        <TouchableOpacity\n          style={[LIKECHECKBOX, { borderColor: colors.transparent }]}\n        >\n          <CustomText\n            textSize={16}\n            textWeight={\"normal\"}\n            textcolor={colors.black}\n            displayText={item.label}\n            textStyle={{\n              lineHeight: 18,\n              textAlign: \"center\",\n            }}\n          />\n        </TouchableOpacity>\n      </ImageBackground>\n    );\n  });\n  let LoopedAppliancesandFinishings = AppliancesandFinishings.map(\n    (item, index) => {\n      return (\n        <ImageBackground\n          key={index}\n          resizeMode=\"stretch\"\n          source={images.card5}\n          style={[CHECKWRAP3]}\n        >\n          <TouchableOpacity\n            style={[LIKECHECKBOX, { borderColor: colors.transparent }]}\n          >\n            <CustomText\n              textSize={16}\n              textWeight={\"normal\"}\n              textcolor={colors.black}\n              displayText={item.label}\n              textStyle={{\n                lineHeight: 18,\n                textAlign: \"center\",\n              }}\n            />\n          </TouchableOpacity>\n        </ImageBackground>\n      );\n    }\n  );\n\n  const _selectPhotoTapped = async () => {\n    // const options = {\n    //   quality: 1.0,\n    //   maxWidth: 500,\n    //   maxHeight: 500,\n    //   storageOptions: {\n    //     skipBackup: true\n    //   },\n    //   mediaType:'photo',\n    //   // mediaType:'video',\n    // };\n\n    const options = {\n      mediaType: \"mixed\",\n    };\n\n    launchImageLibrary(options, async (response) => {\n      if (response.didCancel) {\n        ShowNotification(\"User cancelled photo picker\", \"warning\");\n      } else if (response.errorMessage) {\n        ShowNotification(response.errorMessage, \"error\");\n      } else {\n        const imagedata = response?.assets;\n        imagedata.map((item, index) => {\n          console.warn(item?.fileSize, \"sss\");\n          setLoadingState(true);\n\n          let fileSize = item?.fileSize / 1048576;\n\n          let thissizeInMB = Math.round(fileSize);\n          let Selected_image_localPath = { uri: item?.uri };\n          ShowNotification(\"Please Wait\", \"warning\");\n          const source = {\n            uri: item?.uri,\n            type: item?.type,\n            name: item?.fileName,\n          };\n\n          cloudinaryUpload(source, YOUR_CLOUDINARY_PRESET())\n            .then((response) => {\n              if (response !== false) {\n                setImageArray([...imageArray, response]);\n                ShowNotification(\"Done Saving your File\", \"success\");\n              }\n              setLoadingState(false);\n            })\n            .catch((error) => {\n              ShowNotification(\"Error Saving your File\", \"error\");\n              setLoadingState(false);\n            });\n        });\n      }\n    });\n  };\n  const onchangedate = (event, selectedDate) => {\n    let currentDates = selectedDate + \"\";\n    console.warn(currentDates);\n    const myCurrentDate = convert(currentDates);\n    console.warn(myCurrentDate);\n    setUserSelectedDate(myCurrentDate);\n  };\n  const processDate = (event, selectedDate) => {\n    setShowDate(false);\n    let currentDates = selectedDate + \"\";\n    console.warn(currentDates);\n    const myCurrentDate = convert(currentDates);\n    console.warn(myCurrentDate);\n    setUserSelectedDate(myCurrentDate);\n  };\n  const onchangeTime = (event, selectedDate) => {\n    let currentTime = selectedDate.toTimeString();\n    console.warn(currentTime);\n    const currentDates1 = currentTime.split(\" \");\n    console.warn(currentTime);\n\n    setUserSelectedTime(currentDates1[0]);\n  };\n  const processTiime = (selectedDate: any) => {\n    setShowTime(false);\n    let currentTime = selectedDate.toTimeString();\n    // console.warn(currentTime);\n    const currentDates1 = currentTime.split(\" \");\n    // console.warn(currentDates1[0]);\n    let newTimeSPlit = currentDates1[0].split(\":\");\n    const NewTime = newTimeSPlit[0] + \":\" + newTimeSPlit[1];\n    console.warn(NewTime);\n\n    setUserSelectedTime(NewTime);\n  };\n\n  const convert = (str) => {\n    var date = new Date(str),\n      mnth = (\"0\" + (date.getMonth() + 1)).slice(-2),\n      day = (\"0\" + date.getDate()).slice(-2);\n    return [date.getFullYear(), mnth, day].join(\"-\");\n  };\n\n  const _selectFileToUpload = async () => {\n    try {\n      setLoading2State(true);\n      const res = await DocumentPicker.pick({\n        type: [DocumentPicker.types.pdf, DocumentPicker.types.plainText],\n      });\n\n      const source = {\n        uri: res.uri,\n        type: res.type,\n        name: res.name,\n      };\n      cloudinaryUpload(source, YOUR_CLOUDINARY_PRESET())\n        .then((response) => {\n          if (response !== false) {\n            console.warn(\"FileUrl\");\n            console.warn(response);\n            console.warn(\"FileUrl_done\");\n            setFileArray([...fileArray, response]);\n            setFileName(res?.name);\n            ShowNotification(\"Done Saving your File\", \"success\");\n            setLoading2State(false);\n          }\n        })\n        .catch((error) => {\n          ShowNotification(error, \"error\");\n          setLoading2State(false);\n        });\n    } catch (err) {\n      if (DocumentPicker.isCancel(err)) {\n        ShowNotification(err);\n      } else {\n        ShowNotification(\"An error occured\", \"error\");\n      }\n      setLoading2State(false);\n    }\n  };\n  const BgColor = colors.yellow;\n\n  /* //  */\n\n  /* <TouchableWithoutFeedback onPress={Keyboard.dismiss}> */\n\n  /* </TouchableWithoutFeedback> */\n\n  /* </KeyboardAvoidingView> */\n\n  return (\n    <KeyboardAvoidingView\n      behavior={Platform.OS === \"ios\" ? \"padding\" : \"height\"}\n      style={{ flex: 1 }}\n    >\n      <View style={[ROOT, { backgroundColor: colors.white2 }]}>\n        {stepValue === \"Step 1\" ? (\n          <Header\n            leftIcon={true}\n            title={`${stepValue} of 5`}\n            rightIcon={false}\n            onLeftPress={() => navigation.goBack()}\n          />\n        ) : stepValue === \"Step 2\" ? (\n          <Header\n            leftIcon={true}\n            title={`${stepValue} of 5`}\n            rightIcon={false}\n            onLeftPress={() => handleStepValue(\"Step 1\")}\n          />\n        ) : stepValue === \"Step 3\" ? (\n          <Header\n            leftIcon={true}\n            title={`${stepValue} of 5`}\n            rightIcon={false}\n            onLeftPress={() => handleStepValue(\"Step 2\")}\n          />\n        ) : stepValue === \"Step 4\" ? (\n          <Header\n            leftIcon={true}\n            title={`${stepValue} of 5`}\n            rightIcon={false}\n            onLeftPress={() => handleStepValue(\"Step 3\")}\n          />\n        ) : stepValue === \"Step 5\" ? (\n          <Header\n            leftIcon={true}\n            title={`${stepValue} of 5`}\n            rightIcon={false}\n            onLeftPress={() => handleStepValue(\"Step 4\")}\n          />\n        ) : (\n          <></>\n        )}\n\n        <KeyboardAvoidContainer style={{ paddingVertical: 15 }}>\n          {stepValue === \"Step 1\" ? (\n            <Animatable.View animation={\"fadeIn\"} style={BODY} duration={1000}>\n              <Animatable.View animation={\"slideInUp\"}>\n                <View style={[{ paddingHorizontal: 15, marginBottom: 20 }]}>\n                  <CustomText\n                    textSize={16}\n                    textWeight={\"500\"}\n                    textcolor={colors.black}\n                    displayText={\"Select Property type\"}\n                    textStyle={{ marginBottom: 6, textAlign: \"left\" }}\n                  />\n\n                  <View style={[FLEXROW, { marginBottom: 10 }]}>\n                    \n                    <NeomorphButton\n                      title=\"For Sale\"\n                      onPressHandler={() => handlePropertyType(\"SALE\")}\n                      containerStyles={{\n                        borderColor:\n                          selectPropertyType === \"SALE\"\n                            ? colors.black\n                            : colors.transparent,\n                      }}\n                    />\n\n                    <NeomorphButton\n                      title=\"For Rent\"\n                      onPressHandler={() => handlePropertyType(\"RENT\")}\n                      containerStyles={{\n                        borderColor:\n                          selectPropertyType === \"RENT\"\n                            ? colors.black\n                            : colors.transparent,\n                      }}\n                    />\n                  </View>\n\n                  \n                </View>\n                \n                <View style={INPUTWRAP2}>\n                  <CustomInput\n                    inputText={\"Address\"}\n                    inputTextWeight={\"normal\"}\n                    inputTextSize={15}\n                    inputTextcolor={colors.black}\n                    inputTextSty={SETINPUTSTYLE}\n                    textInputValue={addressValue}\n                    onChangeText={(address1: string) =>\n                      handlegeneralAction(setAddressValue, address1)\n                    }\n                    placeHolderText={\"\"}\n                    showIcon={false}\n                  />\n                </View>\n                <View style={INPUTWRAP2}>\n                  <CustomInput\n                    inputText={\"Listing title\"}\n                    inputTextWeight={\"normal\"}\n                    inputTextSize={15}\n                    inputTextcolor={colors.black}\n                    inputTextSty={SETINPUTSTYLE}\n                    textInputValue={listingTitle}\n                    onChangeText={(cvalue: string) =>\n                      handlegeneralAction(setListingTitle, cvalue)\n                    }\n                    placeHolderText={\"\"}\n                    showIcon={false}\n                  />\n                </View>\n                \n                <View style={[{ paddingHorizontal: 20, marginBottom: 2 }]}>\n                  <CustomText\n                    textSize={16}\n                    textWeight={\"500\"}\n                    textcolor={colors.black}\n                    displayText={\"Describe your property\"}\n                    textStyle={{ marginBottom: 6, textAlign: \"left\" }}\n                  />\n                </View>\n\n                <View style={INPUTWRAP2}>\n                  <CustomInput\n                    inputText={\"(Write a sales copy for your property)\"}\n                    inputTextWeight={\"normal\"}\n                    inputTextSize={15}\n                    inputTextcolor={colors.black}\n                    multiline={true}\n                    inputTextSty={SETINPUTSTYLE}\n                    textInputValue={describedProperty}\n                    onChangeText={(value: string) =>\n                      handlegeneralAction(setDescribedProperty, value)\n                    }\n                    placeHolderText={\"\"}\n                    showIcon={false}\n                  />\n                </View>\n                <View style={[{ paddingHorizontal: 20, marginBottom: 22 }]}>\n                  <TouchableOpacity\n                    disabled={\n                      selectPropertyType === \"\" ||\n                      addressValue === \"\" ||\n                      listingTitle === \"\" ||\n                      describedProperty === \"\"\n                        ? true\n                        : false\n                    }\n                    style={BTNSTYLE}\n                    onPress={() => handleStepValue(\"Step 2\")}\n                  >\n                    <CustomText\n                      textSize={16}\n                      textWeight={\"normal\"}\n                      textcolor={colors.white}\n                      displayText={\"Next\"}\n                      textStyle={{ marginBottom: 6, textAlign: \"center\" }}\n                    />\n                  </TouchableOpacity>\n                </View>\n              </Animatable.View>\n            </Animatable.View>\n          ) : stepValue === \"Step 2\" ? (\n            <Animatable.View animation={\"fadeIn\"} style={BODY} duration={1000}>\n              <Animatable.View animation={\"slideInUp\"}>\n                <View style={[{ paddingHorizontal: 15, marginBottom: 20 }]}>\n                  <CustomText\n                    textSize={16}\n                    textWeight={\"500\"}\n                    textcolor={colors.black}\n                    displayText={\"Select Property type\"}\n                    textStyle={{ marginBottom: 6, textAlign: \"left\" }}\n                  />\n\n                  <View\n                    style={[\n                      FLEXROW,\n                      { marginBottom: 1, justifyContent: \"space-around\" },\n                    ]}\n                  >\n                    {perparedPropType}\n                  </View>\n                </View>\n                <ImageBackground\n                  resizeMode=\"stretch\"\n                  source={images.card6}\n                  style={[\n                    CHECKWRAP,\n                    { maxWidth: \"100%\", height: 75, minWidth: \"100%\" },\n                  ]}\n                >\n                  <TouchableOpacity\n                    onPress={() => {\n                      handleYearBuilt();\n                    }}\n                    style={[\n                      LIKECHECKBOX,\n                      {\n                        borderColor: colors.transparent,\n                        flexDirection: \"row\",\n                        justifyContent: \"space-between\",\n                        paddingLeft: 25,\n                        paddingRight: 20,\n                      },\n                    ]}\n                  >\n                    <CustomText\n                      textSize={16}\n                      textWeight={\"normal\"}\n                      textcolor={colors.black}\n                      displayText={`Year built  ${\n                        yearSelect != \"\" ? yearSelect : \"\"\n                      }`}\n                      textStyle={{\n                        lineHeight: 24,\n                      }}\n                    />\n\n                    <Image source={images.arrDown} style={{ marginTop: 3 }} />\n                  </TouchableOpacity>\n                </ImageBackground>\n                <ImageBackground\n                  resizeMode=\"stretch\"\n                  source={images.card6}\n                  style={[\n                    CHECKWRAP,\n                    {\n                      maxWidth: \"100%\",\n                      height: 75,\n                      marginBottom: 10,\n                      minWidth: \"100%\",\n                    },\n                  ]}\n                >\n                  <TouchableOpacity\n                    onPress={() => {\n                      handleUnit();\n                    }}\n                    style={[\n                      LIKECHECKBOX,\n                      {\n                        borderColor: colors.transparent,\n                        flexDirection: \"row\",\n                        justifyContent: \"space-between\",\n\n                        paddingLeft: 25,\n                        paddingRight: 20,\n                      },\n                    ]}\n                  >\n                    <CustomText\n                      textSize={16}\n                      textWeight={\"normal\"}\n                      textcolor={colors.black}\n                      displayText={`Available units ${unitSelect}`}\n                      textStyle={{\n                        lineHeight: 24,\n                      }}\n                    />\n\n                    <Image source={images.arrDown} style={{ marginTop: 3 }} />\n                  </TouchableOpacity>\n                </ImageBackground>\n\n                <View style={INPUTWRAP2}>\n                  <CustomInput\n                    inputText={\"Square meter\"}\n                    inputTextWeight={\"normal\"}\n                    inputTextSize={15}\n                    inputTextcolor={colors.black}\n                    inputTextSty={SETINPUTSTYLE}\n                    textInputValue={SquareMeter}\n                    onChangeText={(value: string) =>\n                      handlegeneralAction(setSquareMeter, value)\n                    }\n                    placeHolderText={\"\"}\n                    showIcon={false}\n                  />\n                </View>\n                {nonsenseprop === \"\" ? null : (\n                  <View style={INPUTWRAP2}>\n                    <CustomInput\n                      inputText={\"Listing price????\"}\n                      inputTextWeight={\"normal\"}\n                      inputTextSize={15}\n                      inputTextcolor={colors.black}\n                      inputTextSty={SETINPUTSTYLE}\n                      // keyboardType={\"numeric\"}\n                      // onChangeText={(value: number) =>\n                      //   handlegeneralAction(setListingprice, value)\n                      // }\n                      placeHolderText={\"\"}\n                      showIcon={false}\n                    />\n                  </View>\n                )}\n\n                <View style={INPUTWRAP2}>\n                  <CustomInput\n                    inputText={\"Listing price ₦(Naira)\"}\n                    inputTextWeight={\"normal\"}\n                    inputTextSize={15}\n                    inputTextcolor={colors.black}\n                    inputTextSty={SETINPUTSTYLE}\n                    keyboardType={\"numeric\"}\n                    textInputValue={listingprice}\n                    onChangeText={(value: number) =>\n                      handlegeneralAction(setListingprice, value)\n                    }\n                    placeHolderText={\"\"}\n                    showIcon={false}\n                    isCurrency={true}\n                  />\n                </View>\n                <View style={INPUTWRAP2}>\n                  <CustomInput\n                    inputText={\"Service charge (for rent, if any) ₦(Naira)\"}\n                    inputTextWeight={\"normal\"}\n                    inputTextSize={15}\n                    inputTextcolor={colors.black}\n                    inputTextSty={SETINPUTSTYLE}\n                    textInputValue={serviceCharge}\n                    onChangeText={(fvalue: number) =>\n                      handlegeneralAction(setServiceCharge, fvalue)\n                    }\n                    placeHolderText={\"\"}\n                    showIcon={false}\n                    keyboardType={\"numeric\"}\n                    isCurrency={true}\n                  />\n                </View>\n\n                <View style={[{ paddingHorizontal: 15, marginBottom: 2 }]}>\n                  <CustomText\n                    textSize={16}\n                    textWeight={\"500\"}\n                    textcolor={colors.black}\n                    displayText={\"Interior details\"}\n                    textStyle={{ marginBottom: 10, textAlign: \"left\" }}\n                  />\n                </View>\n                <View style={[{ paddingHorizontal: 15, marginBottom: 2 }]}>\n                  <CustomText\n                    textSize={16}\n                    textWeight={\"500\"}\n                    textcolor={colors.black}\n                    displayText={\"Bedroom\"}\n                    textStyle={{ textAlign: \"left\" }}\n                  />\n                </View>\n\n                <ImageBackground\n                  resizeMode=\"stretch\"\n                  source={images.card6}\n                  style={[CHECKWRAP2]}\n                >\n                  {interiorBedroom}\n                </ImageBackground>\n                <View style={[{ paddingHorizontal: 15, marginBottom: 2 }]}>\n                  <CustomText\n                    textSize={16}\n                    textWeight={\"500\"}\n                    textcolor={colors.black}\n                    displayText={\"Bathroom\"}\n                    textStyle={{ textAlign: \"left\" }}\n                  />\n                </View>\n\n                <ImageBackground\n                  resizeMode=\"stretch\"\n                  source={images.card6}\n                  style={[CHECKWRAP2]}\n                >\n                  {interiorBathroom}\n                </ImageBackground>\n                <View style={[{ paddingHorizontal: 15, marginBottom: 2 }]}>\n                  <CustomText\n                    textSize={16}\n                    textWeight={\"500\"}\n                    textcolor={colors.black}\n                    displayText={\"Living Room\"}\n                    textStyle={{ textAlign: \"left\" }}\n                  />\n                </View>\n\n                <ImageBackground\n                  resizeMode=\"stretch\"\n                  source={images.card6}\n                  style={[CHECKWRAP2]}\n                >\n                  {interiorKitChen}\n                </ImageBackground>\n\n                <View style={[{ paddingHorizontal: 20, marginBottom: 22 }]}>\n                  <TouchableOpacity\n                    disabled={\n                      propTypeSelected === null ||\n                      yearSelect === \"\" ||\n                      unitSelect === \"\" ||\n                      SquareMeter === \"\" ||\n                      listingprice === 0 ||\n                      serviceCharge === 0 ||\n                      interiorBedroomSelect === 0 ||\n                      interiorBathroomSelect === 0 ||\n                      interiorKitchenSelect === 0\n                        ? true\n                        : false\n                    }\n                    style={BTNSTYLE}\n                    onPress={() => handleStepValue(\"Step 3\")}\n                  >\n                    <CustomText\n                      textSize={16}\n                      textWeight={\"normal\"}\n                      textcolor={colors.white}\n                      displayText={\"Next\"}\n                      textStyle={{ marginBottom: 6, textAlign: \"center\" }}\n                    />\n                  </TouchableOpacity>\n                </View>\n                <CustomTooltip\n                  actionSheetRef={actionSheeYearBuilttRef}\n                  actionSheetBody={actionSheetYearBuiltBoddy}\n                />\n                <CustomTooltip\n                  actionSheetRef={actionSheetUnitRef}\n                  actionSheetBody={actionSheetUnitBody}\n                />\n              </Animatable.View>\n            </Animatable.View>\n          ) : stepValue === \"Step 3\" ? (\n            <Animatable.View animation={\"fadeIn\"} style={BODY} duration={1000}>\n              <Animatable.View animation={\"slideInUp\"}>\n                <View style={[{ paddingHorizontal: 15, marginBottom: 20 }]}>\n                  <CustomText\n                    textSize={16}\n                    textWeight={\"500\"}\n                    textcolor={colors.black}\n                    displayText={\"Building Amenities\"}\n                    textStyle={{ marginBottom: 6, textAlign: \"left\" }}\n                  />\n                </View>\n                <View\n                  style={[\n                    FLEXROW,\n                    { marginBottom: 1, justifyContent: \"space-evenly\" },\n                  ]}\n                >\n                  {perparedBuildingAmenities}\n                </View>\n                <View style={[{ paddingHorizontal: 15, marginVertical: 20 }]}>\n                  <CustomText\n                    textSize={16}\n                    textWeight={\"500\"}\n                    textcolor={colors.black}\n                    displayText={\"Appliances and Finishings\"}\n                    textStyle={{ marginBottom: 6, textAlign: \"left\" }}\n                  />\n                </View>\n                <View\n                  style={[\n                    FLEXROW,\n                    { marginBottom: 1, justifyContent: \"space-evenly\" },\n                  ]}\n                >\n                  {perparedAppliancesAndFinishings}\n                </View>\n\n                <View style={[{ paddingHorizontal: 20, marginBottom: 22 }]}>\n                  <TouchableOpacity\n                    disabled={\n                      buildingAmenitiesSelected.length < 1 ||\n                      appliancesAndFinishingsSelected.length < 1\n                        ? true\n                        : false\n                    }\n                    style={BTNSTYLE}\n                    onPress={() => handleStepValue(\"Step 4\")}\n                  >\n                    <CustomText\n                      textSize={16}\n                      textWeight={\"normal\"}\n                      textcolor={colors.white}\n                      displayText={\"Next\"}\n                      textStyle={{ marginBottom: 6, textAlign: \"center\" }}\n                    />\n                  </TouchableOpacity>\n                </View>\n                {/* <CustomTooltip\n                actionSheetRef={actionSheeYearBuilttRef}\n                actionSheetBody={actionSheetYearBuiltBoddy}\n              />\n              <CustomTooltip\n                actionSheetRef={actionSheetUnitRef}\n                actionSheetBody={actionSheetUnitBody}\n              /> */}\n              </Animatable.View>\n            </Animatable.View>\n          ) : stepValue === \"Step 4\" ? (\n            <Animatable.View animation={\"fadeIn\"} style={BODY} duration={1000}>\n              <Animatable.View animation={\"slideInUp\"}>\n                <View style={[{ paddingHorizontal: 15, marginBottom: 40 }]}>\n                  <CustomText\n                    textSize={16}\n                    textWeight={\"500\"}\n                    textcolor={colors.black}\n                    displayText={\"Upload property images & documents\"}\n                    textStyle={{\n                      marginBottom: 6,\n                      textAlign: \"left\",\n                      lineHeight: 24,\n                    }}\n                  />\n                  <CustomText\n                    textSize={16}\n                    textWeight={\"normal\"}\n                    textcolor={colors.dark}\n                    displayText={\n                      \"(Property documents are required for verification. They will not be posted on Krib).\"\n                    }\n                    textStyle={{ textAlign: \"left\" }}\n                  />\n                </View>\n                <ImageBackground\n                  resizeMode=\"stretch\"\n                  source={images.bg3}\n                  style={{\n                    flex: 1,\n                    //   width: 395,\n                    padding: 10,\n                    paddingVertical: 40,\n                    justifyContent: \"center\",\n                  }}\n                >\n                  <View style={[{ paddingHorizontal: 15 }]}>\n                    <CustomText\n                      textSize={16}\n                      textWeight={\"bold\"}\n                      textcolor={colors.black}\n                      displayText={\"Attach Image\"}\n                      textStyle={{ textAlign: \"center\" }}\n                    />\n                  </View>\n\n                  <View\n                    style={[\n                      FLEXROW,\n                      {\n                        marginBottom: 1,\n                        justifyContent: \"space-evenly\",\n                        position: \"relative\",\n                      },\n                    ]}\n                  >\n                    {loopedImageArray}\n                  </View>\n\n                  <View style={[FLEXROW2]}>\n                    <TouchableOpacity onPress={() => _selectPhotoTapped()}>\n                      {loadingState ? (\n                        <ActivityIndicator size=\"large\" color={BgColor} />\n                      ) : (\n                        <Image source={images.add} />\n                      )}\n                    </TouchableOpacity>\n                  </View>\n                </ImageBackground>\n\n                <ImageBackground\n                  resizeMode=\"stretch\"\n                  source={images.bg3}\n                  style={{\n                    flex: 1,\n                    //   width: 395,\n                    padding: 10,\n                    justifyContent: \"center\",\n                    marginTop: 20,\n                  }}\n                >\n                  <View\n                    style={[\n                      CARDCONTAINER,\n                      { justifyContent: \"center\", alignItems: \"center\" },\n                    ]}\n                  >\n                    <CustomText\n                      textSize={16}\n                      textWeight={\"normal\"}\n                      textcolor={colors.black}\n                      displayText={\"Attach Document\"}\n                      textStyle={{ marginBottom: 6, textAlign: \"center\" }}\n                    />\n\n                    <Image source={images.upload} />\n                    <CustomText\n                      textSize={16}\n                      textWeight={\"normal\"}\n                      textcolor={colors.dark}\n                      displayText={uploaderFileName}\n                      textStyle={{ marginBottom: 6, textAlign: \"center\" }}\n                    />\n                    <CustomText\n                      textSize={16}\n                      textWeight={\"normal\"}\n                      textcolor={colors.dark}\n                      displayText={\"\"}\n                      textStyle={{ marginBottom: 6, textAlign: \"center\" }}\n                    />\n                    <TouchableOpacity onPress={() => _selectFileToUpload()}>\n                      {loading2State ? (\n                        <ActivityIndicator size=\"large\" color={BgColor} />\n                      ) : (\n                        <Image source={images.upload2} />\n                      )}\n                    </TouchableOpacity>\n                    <CustomText\n                      textSize={13}\n                      textWeight={\"normal\"}\n                      textcolor={colors.dark}\n                      displayText={\"Supported file types: docx, xlsx, pdf.\"}\n                      textStyle={{\n                        marginBottom: 12,\n                        textAlign: \"center\",\n                        marginTop: 35,\n                      }}\n                    />\n                  </View>\n                </ImageBackground>\n\n                <View style={[{ paddingHorizontal: 20, marginBottom: 22 }]}>\n                  <TouchableOpacity\n                    disabled={\n                      imageArray.length < 1 || fileArray.length < 1\n                        ? true\n                        : false\n                    }\n                    style={BTNSTYLE}\n                    onPress={() => handleStepValue(\"Step 5\")}\n                  >\n                    <CustomText\n                      textSize={16}\n                      textWeight={\"normal\"}\n                      textcolor={colors.white}\n                      displayText={\"Next\"}\n                      textStyle={{ marginBottom: 6, textAlign: \"center\" }}\n                    />\n                  </TouchableOpacity>\n                </View>\n              </Animatable.View>\n            </Animatable.View>\n          ) : (\n            <Animatable.View animation={\"fadeIn\"} style={BODY} duration={1000}>\n              <Animatable.View animation={\"slideInUp\"}>\n                <View\n                  style={[\n                    {\n                      paddingHorizontal: 15,\n                      marginBottom: 20,\n                      justifyContent: \"flex-start\",\n                      alignItems: \"flex-start\",\n                    },\n                  ]}\n                >\n                  <CustomText\n                    textSize={16}\n                    textWeight={\"500\"}\n                    textcolor={colors.black}\n                    displayText={\"Schedule Consultation\"}\n                    textStyle={{ marginBottom: 40, textAlign: \"left\" }}\n                  />\n                  <View style={FLEXROWVERIFY}>\n                    {/*  style={SETMARGIN} */}\n                    <Image source={images.verify} />\n                    <CustomText\n                      textSize={16}\n                      textWeight={\"normal\"}\n                      textcolor={colors.black}\n                      displayText={\n                        \"Meet with Krib team to discuss selling strategies.\"\n                      }\n                      textStyle={{\n                        textAlign: \"left\",\n                        flexWrap: \"wrap\",\n                        marginLeft: 10,\n                        flex: 1,\n                      }}\n                    />\n                  </View>\n\n                  <View style={FLEXROWVERIFY}>\n                    {/*  style={SETMARGIN} */}\n                    <Image source={images.verify} />\n                    <CustomText\n                      textSize={16}\n                      textWeight={\"normal\"}\n                      textcolor={colors.black}\n                      displayText={\n                        \"Free architectural and aerial photograhphy to boost your property's appeal\"\n                      }\n                      textStyle={{\n                        textAlign: \"left\",\n\n                        flexWrap: \"wrap\",\n                        marginLeft: 10,\n                        flex: 1,\n                      }}\n                    />\n                  </View>\n\n                  {/* <View style={FLEXROWVERIFY}>\n                  <Image source={images.verify} style={SETMARGIN} />\n                  <CustomText\n                    textSize={16}\n                    textWeight={\"normal\"}\n                    textcolor={colors.black}\n                    displayText={\"We charge a 1% listing fee when you sell.\"}\n                    textStyle={{ textAlign: \"left\", flex: 1 }}\n                  />\n                </View> */}\n\n                  <View style={[FLEXROW, { marginBottom: 30, marginTop: 20 }]}>\n                    <CustomText\n                      textSize={16}\n                      textWeight={\"normal\"}\n                      textcolor={colors.black}\n                      displayText={\"Calendar\"}\n                      textStyle={{ textAlign: \"left\", flex: 1 }}\n                    />\n                    <ImageBackground\n                      resizeMode=\"stretch\"\n                      source={images.card5}\n                      style={[CHECKWRAP]}\n                    >\n                      <TouchableOpacity\n                        onPress={() => processDatePicker()}\n                        style={{\n                          justifyContent: \"center\",\n                          alignContent: \"center\",\n                        }}\n                      >\n                        <CustomText\n                          textSize={16}\n                          textWeight={\"normal\"}\n                          textcolor={colors.black}\n                          displayText={userSelectedDate}\n                          textStyle={{ textAlign: \"center\" }}\n                        />\n                      </TouchableOpacity>\n                    </ImageBackground>\n                  </View>\n                  <View style={[FLEXROW, { marginBottom: 10 }]}>\n                    <CustomText\n                      textSize={16}\n                      textWeight={\"normal\"}\n                      textcolor={colors.black}\n                      displayText={\"Time\"}\n                      textStyle={{ textAlign: \"left\", flex: 1 }}\n                    />\n\n                    <ImageBackground\n                      resizeMode=\"stretch\"\n                      source={images.card5}\n                      style={[CHECKWRAP]}\n                    >\n                      <TouchableOpacity\n                        disabled={\n                          userSelectedDate === \"DD/MM/YY\" ? true : false\n                        }\n                        onPress={() => processTimePicker()}\n                        style={{\n                          justifyContent: \"center\",\n                          alignContent: \"center\",\n                        }}\n                      >\n                        <CustomText\n                          textSize={16}\n                          textWeight={\"normal\"}\n                          textcolor={colors.black}\n                          displayText={userSelectedTime}\n                          textStyle={{ textAlign: \"center\" }}\n                        />\n                      </TouchableOpacity>\n                    </ImageBackground>\n                  </View>\n                </View>\n\n                <View style={[{ paddingHorizontal: 20, marginBottom: 22 }]}>\n                  <TouchableOpacity\n                    style={BTNSTYLE}\n                    onPress={() => processAddProperty()}\n                  >\n                    <CustomText\n                      textSize={16}\n                      textWeight={\"normal\"}\n                      textcolor={colors.white}\n                      displayText={\n                        processing === true\n                          ? \"Processing....\"\n                          : \"Schedule consultation\"\n                      }\n                      textStyle={{ marginBottom: 6, textAlign: \"center\" }}\n                    />\n                  </TouchableOpacity>\n                </View>\n              </Animatable.View>\n            </Animatable.View>\n          )}\n        </KeyboardAvoidContainer>\n        {showDate && (\n          <DateTimePicker\n            testID=\"dateTimePicker\"\n            value={date}\n            mode={\"date\"}\n            is24Hour={true}\n            style={{\n              backgroundColor: 'blavk'\n            }}\n            // display=\"default\"\n            display={Platform.OS == \"ios\" ? \"spinner\" : \"default\"}\n            onChange={(event, selectedDate) => processDate(event, selectedDate)}\n          />\n        )}\n        {showTime && (\n          <DatePicker\n            modal\n            open={showTime}\n            date={date}\n            mode=\"time\"\n            display={Platform.OS == \"ios\" ? \"spinner\" : \"default\"}\n            androidVariant=\"iosClone\"\n            onConfirm={(date) => {\n              processTiime(date);\n            }}\n            onCancel={() => {\n              setShowTime(false);\n            }}\n          />\n         \n        )}\n      </View>\n    </KeyboardAvoidingView>\n  );\n};\n\nexport default StepRegistration;\n"
        }
    ]
}